{
  "name": "log",
  "active": true,
  "title": "Logging",
  "description": "Logging functionality to keep track of activity.",
  "modules": [{"name": "default", "usage": "extend"}],
  "permission": ["bot"],
  "version": "0.1.0",
  "author": "Wander van der Wal",
  "guildOnly": false,
  "display": false,
  "accessible" : false
}
