{
  "items": [
    {
      "name": "InvalidCommand",
      "code": 101,
      "description": "Invalid Command. Please try something else.",
      "module": "default"
    },
    {
      "name": "CantExecuteCommand",
      "code": 102,
      "description": "I can't execute that command inside DMs!",
      "module": "default"
    }
  ]
}
