{
  "name": "default",
  "active": true,
  "title": "Default Module",
  "description": "Modules that deliver standard functionality.",
  "version": "0.1.0",
  "author": "Wander van der Wal",
  "guildOnly": false,
  "display": false,
  "paths": ["./decorators"]
}
